Assignment2/waveforms/4bitadder.vcd
$date
	Mon Apr 21 18:43:40 2025
$end
$version
	Icarus Verilog
$end
$timescale
	1ns
$end
$scope module tb_adder $end
$var wire 4 ! sum [3:0] $end
$var wire 1 " carry_out $end
$var reg 4 # a [3:0] $end
$var reg 4 $ b [3:0] $end
$var reg 1 % carry_in $end
$scope module uut $end
$var wire 4 & a [3:0] $end
$var wire 4 ' b [3:0] $end
$var wire 1 % carry_in $end
$var wire 4 ( sum [3:0] $end
$var wire 1 " carry_out $end
$var wire 5 ) carry [4:0] $end
$scope begin genblk1[0] $end
$var wire 1 * temp5 $end
$var wire 1 + temp4 $end
$var wire 1 , temp3 $end
$var wire 1 - temp2 $end
$var wire 1 . temp1 $end
$var parameter 2 / i $end
$scope module and1 $end
$var wire 1 0 a $end
$var wire 1 1 b $end
$var wire 1 - out $end
$var wire 1 2 temp $end
$upscope $end
$scope module and2 $end
$var wire 1 3 a $end
$var wire 1 4 b $end
$var wire 1 , out $end
$var wire 1 5 temp $end
$upscope $end
$scope module and3 $end
$var wire 1 6 a $end
$var wire 1 7 b $end
$var wire 1 + out $end
$var wire 1 8 temp $end
$upscope $end
$scope module or1 $end
$var wire 1 - a $end
$var wire 1 , b $end
$var wire 1 * out $end
$var wire 1 9 temp1 $end
$var wire 1 : temp2 $end
$upscope $end
$scope module or2 $end
$var wire 1 * a $end
$var wire 1 + b $end
$var wire 1 ; out $end
$var wire 1 < temp1 $end
$var wire 1 = temp2 $end
$upscope $end
$scope module xor1 $end
$var wire 1 > a $end
$var wire 1 ? b $end
$var wire 1 . out $end
$var wire 1 @ temp1 $end
$var wire 1 A temp2 $end
$var wire 1 B temp3 $end
$upscope $end
$scope module xor2 $end
$var wire 1 . a $end
$var wire 1 C b $end
$var wire 1 D out $end
$var wire 1 E temp1 $end
$var wire 1 F temp2 $end
$var wire 1 G temp3 $end
$upscope $end
$upscope $end
$scope begin genblk1[1] $end
$var wire 1 H temp5 $end
$var wire 1 I temp4 $end
$var wire 1 J temp3 $end
$var wire 1 K temp2 $end
$var wire 1 L temp1 $end
$var parameter 2 M i $end
$scope module and1 $end
$var wire 1 N a $end
$var wire 1 O b $end
$var wire 1 K out $end
$var wire 1 P temp $end
$upscope $end
$scope module and2 $end
$var wire 1 Q a $end
$var wire 1 R b $end
$var wire 1 J out $end
$var wire 1 S temp $end
$upscope $end
$scope module and3 $end
$var wire 1 T a $end
$var wire 1 U b $end
$var wire 1 I out $end
$var wire 1 V temp $end
$upscope $end
$scope module or1 $end
$var wire 1 K a $end
$var wire 1 J b $end
$var wire 1 H out $end
$var wire 1 W temp1 $end
$var wire 1 X temp2 $end
$upscope $end
$scope module or2 $end
$var wire 1 H a $end
$var wire 1 I b $end
$var wire 1 Y out $end
$var wire 1 Z temp1 $end
$var wire 1 [ temp2 $end
$upscope $end
$scope module xor1 $end
$var wire 1 \ a $end
$var wire 1 ] b $end
$var wire 1 L out $end
$var wire 1 ^ temp1 $end
$var wire 1 _ temp2 $end
$var wire 1 ` temp3 $end
$upscope $end
$scope module xor2 $end
$var wire 1 L a $end
$var wire 1 a b $end
$var wire 1 b out $end
$var wire 1 c temp1 $end
$var wire 1 d temp2 $end
$var wire 1 e temp3 $end
$upscope $end
$upscope $end
$scope begin genblk1[2] $end
$var wire 1 f temp5 $end
$var wire 1 g temp4 $end
$var wire 1 h temp3 $end
$var wire 1 i temp2 $end
$var wire 1 j temp1 $end
$var parameter 3 k i $end
$scope module and1 $end
$var wire 1 l a $end
$var wire 1 m b $end
$var wire 1 i out $end
$var wire 1 n temp $end
$upscope $end
$scope module and2 $end
$var wire 1 o a $end
$var wire 1 p b $end
$var wire 1 h out $end
$var wire 1 q temp $end
$upscope $end
$scope module and3 $end
$var wire 1 r a $end
$var wire 1 s b $end
$var wire 1 g out $end
$var wire 1 t temp $end
$upscope $end
$scope module or1 $end
$var wire 1 i a $end
$var wire 1 h b $end
$var wire 1 f out $end
$var wire 1 u temp1 $end
$var wire 1 v temp2 $end
$upscope $end
$scope module or2 $end
$var wire 1 f a $end
$var wire 1 g b $end
$var wire 1 w out $end
$var wire 1 x temp1 $end
$var wire 1 y temp2 $end
$upscope $end
$scope module xor1 $end
$var wire 1 z a $end
$var wire 1 { b $end
$var wire 1 j out $end
$var wire 1 | temp1 $end
$var wire 1 } temp2 $end
$var wire 1 ~ temp3 $end
$upscope $end
$scope module xor2 $end
$var wire 1 j a $end
$var wire 1 !" b $end
$var wire 1 "" out $end
$var wire 1 #" temp1 $end
$var wire 1 $" temp2 $end
$var wire 1 %" temp3 $end
$upscope $end
$upscope $end
$scope begin genblk1[3] $end
$var wire 1 &" temp5 $end
$var wire 1 '" temp4 $end
$var wire 1 (" temp3 $end
$var wire 1 )" temp2 $end
$var wire 1 *" temp1 $end
$var parameter 3 +" i $end
$scope module and1 $end
$var wire 1 ," a $end
$var wire 1 -" b $end
$var wire 1 )" out $end
$var wire 1 ." temp $end
$upscope $end
$scope module and2 $end
$var wire 1 /" a $end
$var wire 1 0" b $end
$var wire 1 (" out $end
$var wire 1 1" temp $end
$upscope $end
$scope module and3 $end
$var wire 1 2" a $end
$var wire 1 3" b $end
$var wire 1 '" out $end
$var wire 1 4" temp $end
$upscope $end
$scope module or1 $end
$var wire 1 )" a $end
$var wire 1 (" b $end
$var wire 1 &" out $end
$var wire 1 5" temp1 $end
$var wire 1 6" temp2 $end
$upscope $end
$scope module or2 $end
$var wire 1 &" a $end
$var wire 1 '" b $end
$var wire 1 7" out $end
$var wire 1 8" temp1 $end
$var wire 1 9" temp2 $end
$upscope $end
$scope module xor1 $end
$var wire 1 :" a $end
$var wire 1 ;" b $end
$var wire 1 *" out $end
$var wire 1 <" temp1 $end
$var wire 1 =" temp2 $end
$var wire 1 >" temp3 $end
$upscope $end
$scope module xor2 $end
$var wire 1 *" a $end
$var wire 1 ?" b $end
$var wire 1 @" out $end
$var wire 1 A" temp1 $end
$var wire 1 B" temp2 $end
$var wire 1 C" temp3 $end
$upscope $end
$upscope $end
$upscope $end
$upscope $end
$enddefinitions $end
$comment Show the parameter values. $end
$dumpall
b11 +"
b10 k
b1 M
b0 /
$end
#0
$dumpvars
xC"
xB"
xA"
x@"
x?"
x>"
x="
x<"
1;"
1:"
x9"
x8"
x7"
x6"
x5"
x4"
x3"
12"
x1"
x0"
1/"
x."
1-"
1,"
x*"
x)"
x("
x'"
x&"
x%"
x$"
x#"
x""
x!"
x~
x}
x|
0{
1z
xy
xx
xw
xv
xu
xt
xs
0r
xq
xp
1o
xn
0m
1l
xj
xi
xh
xg
xf
xe
xd
xc
xb
xa
x`
x_
x^
1]
0\
x[
xZ
xY
xX
xW
xV
xU
1T
xS
xR
0Q
xP
1O
0N
xL
xK
xJ
xI
xH
xG
xF
xE
xD
1C
xB
xA
x@
1?
1>
x=
x<
x;
x:
x9
x8
17
16
x5
14
13
x2
11
10
x.
x-
x,
x+
x*
bx1 )
bx (
b1011 '
b1101 &
1%
b1011 $
b1101 #
x"
bx !
$end
#1
08
1~
1t
0@
02
05
1^
1_
1P
1S
1|
1n
0<"
0."
#2
1+
0g
1A
1B
1-
1,
0`
0K
0J
0}
0i
1="
1>"
1)"
#3
0=
1y
0.
09
0:
1L
1W
1X
1j
1u
0*"
05"
#4
1U
1R
1a
bx11 )
1;
1E
1F
1*
0H
1A"
1B"
1&"
#5
0V
0c
0G
0<
1Z
08"
#6
1"
1I
1d
1e
bx1 !
bx1 (
1D
b1xx11 )
17"
#7
0[
bx01 !
bx01 (
0b
#8
1s
1p
1!"
b1x111 )
1Y
#9
0q
0#"
#10
07
04
0C
0]
0O
0T
0>
00
03
1\
1N
1Q
0:"
0,"
0/"
1h
1$"
1%"
b1x110 )
0%
b1001 $
b1001 '
b110 #
b110 &
#11
18
1G
1`
1V
1@
12
15
0_
0S
1<"
1."
11"
0v
bx001 !
bx001 (
0""
#12
0+
bx000 !
bx000 (
0D
0I
0B
0-
0,
1J
0>"
0)"
0("
1f
#13
1=
1[
1.
19
1:
0X
1*"
15"
16"
0x
#14
0s
0p
0!"
13"
10"
1?"
0Y
0F
0*
1H
xA"
0B"
0&"
b11010 )
1w
#15
1q
1#"
04"
0A"
1D
1<
0Z
xB"
b1001 !
b1001 (
1@"
18"
#16
0U
0R
0a
1s
1p
1!"
x"
0h
0$"
1'"
1B"
1C"
0;
1Y
bx001 !
bx001 (
x@"
bx1100 )
x7"
#17
1S
1c
0q
0#"
0%"
1v
1""
09"
b101 !
b101 (
0@"
#18
1"
0J
0d
1h
1$"
1%"
0f
b11100 )
17"
#19
1X
1b
0v
b11 !
b11 (
0""
1x
#20
03"
00"
0?"
1]
1O
1T
1{
1m
1r
1>
10
13
1:"
1,"
1/"
0H
1f
b10100 )
0w
b1111 $
b1111 '
b1111 #
b1111 &
#21
14"
1A"
0^
0`
0P
0|
0~
0n
0t
0@
0A
02
0<"
0="
0."
1Z
0x
#22
0s
0p
0!"
13"
10"
1?"
0'"
0B"
1_
1`
1K
1}
1~
1i
1g
1A
1B
1-
1="
1>"
1)"
0Y
b11000 )
1w
#23
1t
1q
1#"
04"
01"
0A"
0C"
19"
b1011 !
b1011 (
1@"
0L
0W
0j
0u
0y
0.
09
0*"
05"
#24
0"
0g
0h
1'"
1("
1C"
b1000 )
07"
1d
1H
1F
1*
1A"
1B"
1&"
#25
1y
1v
09"
06"
0b
0Z
0D
0<
0C"
b0 !
b0 (
0@"
08"
#26
1s
1p
1!"
1U
1R
1a
1"
1Y
1;
b1000 !
b1000 (
1@"
b11110 )
17"
#27
0t
0q
0%"
0V
0S
0e
#28
1g
1h
1""
1I
1J
b1110 !
b1110 (
1b
#29
0y
0v
0[
0X
#30
17
14
1C
0?
01
06
0]
0O
0T
0{
0m
0r
0;"
0-"
02"
0>
00
03
0\
0N
0Q
0z
0l
0o
0:"
0,"
0/"
b11111 )
1%
b0 $
b0 '
b0 #
b0 &
#31
0G
1V
1t
14"
1@
12
1^
1P
1S
1|
1n
1q
1<"
1."
11"
#32
b1111 !
b1111 (
1D
0I
0g
0'"
0-
0K
0J
0i
0h
0)"
0("
#33
1[
1y
19"
19
1W
1X
1u
1v
15"
16"
#34
0*
0H
0f
0&"
#35
1<
1Z
1x
18"
#36
0U
0R
0a
0s
0p
0!"
03"
00"
0?"
0"
0;
0Y
0w
b1 )
07"
#37
1e
1%"
1C"
#38
0b
0""
b1 !
b1 (
0@"
#40
07
04
0C
1?
11
16
1{
1m
1r
1\
1N
1Q
1:"
1,"
1/"
b0 )
0%
b101 $
b101 '
b1010 #
b1010 &
#41
1G
0B
0~
0_
0="
#42
b0 !
b0 (
0D
1.
1j
1L
1*"
#43
0F
0$"
0d
0B"
#44
1D
1""
1b
b1111 !
b1111 (
1@"
